tests/Pipelined/TESTBENCH1_VCD.vcd
$comment
Copyright (C) 1991-2009 Altera Corporation
Your use of Altera Corporation's design tools, logic functions 
and other software and tools, and its AMPP partner logic 
functions, and any output files from any of the foregoing 
(including device programming or simulation files), and any 
associated documentation or information are expressly subject 
to the terms and conditions of the Altera Program License 
Subscription Agreement, Altera MegaCore Function License 
Agreement, or other applicable license agreement, including, 
without limitation, that your use is for the sole purpose of 
programming logic devices manufactured by Altera and sold by 
Altera or its authorized distributors.  Please refer to the 
applicable agreement for further details.
$end

$date 
  12/13/2012 12:11:37 
$end
$version 
 QUARTUS_VCD_EXPORT 1.0 
$end
$timescale
  1 ps
$end
$scope module Entire $end
$var reg 1 ! ClockSig $end
$var reg 16 " Ins_IF[15:0] $end
$var reg 16 # Ins_ID[15:0] $end
$var reg 16 $ Ins_EX[15:0] $end
$var reg 16 % Ins_MEM[15:0] $end
$var reg 16 & Ins_WB[15:0] $end
$var reg 16 ' DOUT[15:0] $end
$var reg 3 ( FLAGS[2:0] $end
$var reg 4 ) ALU_RS[3:0] $end
$var reg 4 * ALU_RT[3:0] $end
$var reg 4 + ALU_RD[3:0] $end
$var reg 16 , ALU_A[15:0] $end
$var reg 16 - ALU_B[15:0] $end
$var reg 16 . External_DataLoad_Reg[15:0] $end
$var reg 4 / External_DestAddr[3:0] $end
$var reg 1 0 External_load $end
$var reg 16 1 BRANCH_ADDR[15:0] $end
$var reg 1 2 BRANCH_YES $end
$var reg 8 3 CONTROL_ID[7:0] $end
$var reg 8 4 \CONTROL_ID/EX [7:0] $end
$var reg 16 5 DATAWRITEBACK_RF[15:0] $end
$var reg 4 6 RD_FINAL[3:0] $end
$var reg 16 7 DM_DATAIN[15:0] $end
$var reg 16 8 DM_DATAOUT[15:0] $end
$var reg 4 9 DM_MEMADDR[3:0] $end
$var reg 16 : Inst_CHECK[15:0] $end
$var reg 1 ; LoadPC $end
$var reg 16 < PC_out[15:0] $end
$var reg 16 = PC_out1[15:0] $end
$var reg 1 > PCld $end
$var reg 4 ? DM_Addr[3:0] $end
$var reg 16 @ DM_Load[15:0] $end
$var reg 16 A RF0[15:0] $end
$var reg 16 B RF1[15:0] $end
$var reg 16 C RF2[15:0] $end
$var reg 16 D RF3[15:0] $end
$var reg 16 E RF4[15:0] $end
$var reg 16 F RF5[15:0] $end
$var reg 16 G RF6[15:0] $end
$var reg 16 H RF7[15:0] $end
$var reg 16 I RF8[15:0] $end
$var reg 16 J RF9[15:0] $end
$var reg 16 K RF10[15:0] $end
$var reg 16 L RF11[15:0] $end
$var reg 16 M RF12[15:0] $end
$var reg 16 N RF13[15:0] $end
$var reg 16 O RF14[15:0] $end
$var reg 16 P RF15[15:0] $end
$var reg 1 Q CARRYOUT $end
$var reg 1 R ENWR_REGFILE $end
$var reg 1 S INCDECSP $end
$var reg 1 T SPSELECT $end
$var reg 4 U NEWADDRFORSP[3:0] $end
$var reg 1 V SPSELECT2 $end
$var reg 1 W FlagSet $end
$var reg 1 X Flush $end
$var reg 1 Y REGWR_CTRL $end
$var reg 1 Z REGWR_IP_PIPE $end
$var reg 1 [ REGWR_OP_PIPE $end
$var reg 1 \ ForwardEX_A_TEST $end
$var reg 1 ] ForwardEX_B_TEST $end
$var reg 1 ^ ForwardMEM_A_TEST $end
$var reg 1 _ ForwardMEM_B_TEST $end
$var reg 16 ` DATAIN_REGF_TEST[15:0] $end
$var reg 1 a ForwardID_A_TEST $end
$var reg 1 b ForwardID_B_TEST $end
$var reg 1 c HALT_TEST $end
$var reg 1 d LWStall2 $end
$var reg 1 e BRStall $end
$var reg 1 f BRNCH_INPUT $end
$var reg 1 g CALL_TEST $end
$var reg 1 h CALL_EX_TEST $end
$var reg 1 i RET_ID $end
$var reg 1 j RET_EX $end
$var reg 1 k RET_MEM $end
$var reg 1 l A_RF[15] $end
$var reg 1 m A_RF[14] $end
$var reg 1 n A_RF[13] $end
$var reg 1 o A_RF[12] $end
$var reg 1 p A_RF[11] $end
$var reg 1 q A_RF[10] $end
$var reg 1 r A_RF[9] $end
$var reg 1 s A_RF[8] $end
$var reg 1 t A_RF[7] $end
$var reg 1 u A_RF[6] $end
$var reg 1 v A_RF[5] $end
$var reg 1 w A_RF[4] $end
$var reg 1 x A_RF[3] $end
$var reg 1 y A_RF[2] $end
$var reg 1 z A_RF[1] $end
$var reg 1 { A_RF[0] $end
$var reg 1 | B_RF[15] $end
$var reg 1 } B_RF[14] $end
$var reg 1 ~ B_RF[13] $end
$var reg 1 !! B_RF[12] $end
$var reg 1 !" B_RF[11] $end
$var reg 1 !# B_RF[10] $end
$var reg 1 !$ B_RF[9] $end
$var reg 1 !% B_RF[8] $end
$var reg 1 !& B_RF[7] $end
$var reg 1 !' B_RF[6] $end
$var reg 1 !( B_RF[5] $end
$var reg 1 !) B_RF[4] $end
$var reg 1 !* B_RF[3] $end
$var reg 1 !+ B_RF[2] $end
$var reg 1 !, B_RF[1] $end
$var reg 1 !- B_RF[0] $end
$var reg 1 !. FLAGS_FF[2] $end
$var reg 1 !/ FLAGS_FF[1] $end
$var reg 1 !0 FLAGS_FF[0] $end
$var reg 1 !1 RD_READ[3] $end
$var reg 1 !2 RD_READ[2] $end
$var reg 1 !3 RD_READ[1] $end
$var reg 1 !4 RD_READ[0] $end
$upscope $end
$enddefinitions $end
#0
$dumpvars
0!
b0 "
b0 #
b0 $
b0 %
b0 &
b0 '
b0 (
b0 )
b0 *
b0 +
b0 ,
b0 -
b1 .
b1 /
10
b0 1
02
b1 3
b0 4
b0 5
b0 6
b0 7
b0 8
b0 9
b0 :
1;
b0 <
b1 =
1>
b0 ?
b0 @
b0 A
b0 B
b0 C
b0 D
b0 E
b0 F
b0 G
b0 H
b0 I
b0 J
b0 K
b0 L
b0 M
b0 N
b0 O
b0 P
XQ
0R
0S
0T
b0 U
0V
1W
0X
1Y
0Z
0[
0\
0]
0^
0_
b0 `
0a
0b
0c
0d
0e
0f
0g
0h
0i
0j
0k
0l
0m
0n
0o
0p
0q
0r
0s
0t
0u
0v
0w
0x
0y
0z
0{
0|
0}
0~
0!!
0!"
0!#
0!$
0!%
0!&
0!'
0!(
0!)
0!*
0!+
0!,
0!-
0!.
0!/
0!0
0!1
0!2
0!3
0!4
$end
#5000
1!
bX '
b1 +
b1 4
b1 6
b1 <
b10 =
0Q
1R
bX U
1Z
b1 `
#10000
0!
b1100 .
b10 /
#15000
1!
b0 '
b10 +
b1 1
bX 5
b10 6
b10 <
b11 =
b1 B
b0 U
1[
b1100 `
#20000
0!
b1101 .
b11 /
#25000
1!
b100100011 "
b11 +
b10 1
b0 5
b11 6
b100100011 :
b11 <
b100 =
b1100 C
b1101 `
#30000
0!
b0 .
b0 /
00
#35000
1!
b111010000010010 "
b100100011 #
b10 )
b11 *
b0 +
b11 1
b0 6
b111010000010010 :
b100 <
b101 =
b1101 D
b0 `
1a
1x
1y
1!*
1!+
1!-
#40000
0!
#45000
1!
b11010100010100 "
b111010000010010 #
b100100011 $
b1 )
b10 *
b1100 ,
b1101 -
b100111 1
b10000000 3
b11010100010100 :
b101 <
b110 =
1\
0a
1b
0x
0y
1{
0!*
0!+
1!,
0!-
#50000
0!
#55000
1!
b1011001010001 "
b11010100010100 #
b111010000010010 $
b100100011 %
b11001 '
b100 *
b11001 ,
b10 -
b10111 1
b1000 3
b10000000 4
b1101 7
b1001 9
b1011001010001 :
b110 <
b111 =
b1001 U
0W
0\
1]
1^
1a
0b
0!,
#60000
0!
#65000
1!
b1111000000000000 "
b1011001010001 #
b11010100010100 $
b111010000010010 %
b100100011 &
b1100100 '
b101 )
b1 *
b1 +
b1100100 -
b11010 1
b10 3
b1000 4
b11001 5
b1 6
b10 7
b100 9
b1111000000000000 :
b111 <
b1000 =
b100 U
1W
1\
0]
0^
b11001 `
0a
0{
1!)
1!*
1!-
1!4
#70000
0!
#75000
1!
b1111000000000000 #
b1011001010001 $
b11010100010100 %
b111010000010010 &
b1111101 '
b0 )
b0 *
b100 +
b1111101 ,
b11001 -
b1011000 1
b0 3
b10 4
b1100100 5
b100 6
b0 7
b1101 9
b100001100100001 :
b1000 <
b1001 =
b11001 B
1Q
b1101 U
0Y
0\
b1100100 `
0!)
0!*
0!-
1!2
0!4
#80000
0!
#85000
1!
b1111000000000000 $
b1011001010001 %
b11010100010100 &
b1100100 '
b101 +
b0 ,
b0 -
b1000 1
b0 4
b1111101 5
b101 6
b11001 7
b100 9
b1110000000000000 :
b1001 <
b1010 =
0>
b1100100 E
XQ
b100 U
0W
0Z
b1111101 `
1c
1!4
#90000
0!
#95000
1!
b1111000000000000 %
b1011001010001 &
bX '
bX (
b110 +
b1001 1
b1100100 5
b110 6
b0 7
bX 9
b1111101 F
bX U
0[
b1100100 `
1!3
0!4
#100000
0!
#105000
1!
b1111000000000000 &
b0 +
b1010 1
bX 5
b0 6
b1100100 G
0R
bX `
X!.
X!/
X!0
0!2
0!3
