tests/Pipelined/TESTBENCH3_VCD.vcd
$comment
Copyright (C) 1991-2009 Altera Corporation
Your use of Altera Corporation's design tools, logic functions 
and other software and tools, and its AMPP partner logic 
functions, and any output files from any of the foregoing 
(including device programming or simulation files), and any 
associated documentation or information are expressly subject 
to the terms and conditions of the Altera Program License 
Subscription Agreement, Altera MegaCore Function License 
Agreement, or other applicable license agreement, including, 
without limitation, that your use is for the sole purpose of 
programming logic devices manufactured by Altera and sold by 
Altera or its authorized distributors.  Please refer to the 
applicable agreement for further details.
$end

$date 
  12/13/2012 12:11:50 
$end
$version 
 QUARTUS_VCD_EXPORT 1.0 
$end
$timescale
  1 ps
$end
$scope module Entire $end
$var reg 1 ! ClockSig $end
$var reg 16 " Ins_IF[15:0] $end
$var reg 16 # Ins_ID[15:0] $end
$var reg 16 $ Ins_EX[15:0] $end
$var reg 16 % Ins_MEM[15:0] $end
$var reg 16 & Ins_WB[15:0] $end
$var reg 16 ' DOUT[15:0] $end
$var reg 3 ( FLAGS[2:0] $end
$var reg 3 ) FLAGS_FF[2:0] $end
$var reg 4 * ALU_RS[3:0] $end
$var reg 4 + ALU_RT[3:0] $end
$var reg 4 , ALU_RD[3:0] $end
$var reg 16 - ALU_A[15:0] $end
$var reg 16 . ALU_B[15:0] $end
$var reg 16 / BRANCH_ADDR[15:0] $end
$var reg 1 0 BRANCH_YES $end
$var reg 1 1 BRNCH_INPUT $end
$var reg 1 2 CARRYOUT $end
$var reg 8 3 CONTROL_ID[7:0] $end
$var reg 8 4 \CONTROL_ID/EX [7:0] $end
$var reg 16 5 DATAWRITEBACK_RF[15:0] $end
$var reg 4 6 RD_FINAL[3:0] $end
$var reg 4 7 RD_READ[3:0] $end
$var reg 16 8 DM_DATAIN[15:0] $end
$var reg 16 9 DM_DATAOUT[15:0] $end
$var reg 4 : DM_MEMADDR[3:0] $end
$var reg 16 ; Inst_CHECK[15:0] $end
$var reg 1 < LoadPC $end
$var reg 16 = PC_out[15:0] $end
$var reg 16 > PC_out1[15:0] $end
$var reg 1 ? PCld $end
$var reg 16 @ RF0[15:0] $end
$var reg 16 A RF1[15:0] $end
$var reg 16 B RF2[15:0] $end
$var reg 16 C RF3[15:0] $end
$var reg 16 D RF4[15:0] $end
$var reg 16 E RF5[15:0] $end
$var reg 16 F RF6[15:0] $end
$var reg 16 G RF7[15:0] $end
$var reg 16 H RF8[15:0] $end
$var reg 16 I RF9[15:0] $end
$var reg 16 J RF10[15:0] $end
$var reg 16 K RF11[15:0] $end
$var reg 16 L RF12[15:0] $end
$var reg 16 M RF13[15:0] $end
$var reg 16 N RF14[15:0] $end
$var reg 16 O RF15[15:0] $end
$var reg 1 P ENWR_REGFILE $end
$var reg 1 Q INCDECSP $end
$var reg 1 R SPSELECT $end
$var reg 4 S NEWADDRFORSP[3:0] $end
$var reg 1 T SPSELECT2 $end
$var reg 1 U FlagSet $end
$var reg 1 V Flush $end
$var reg 1 W REGWR_CTRL $end
$var reg 1 X REGWR_IP_PIPE $end
$var reg 1 Y REGWR_OP_PIPE $end
$var reg 1 Z ForwardEX_A_TEST $end
$var reg 1 [ ForwardEX_B_TEST $end
$var reg 1 \ ForwardMEM_A_TEST $end
$var reg 1 ] ForwardMEM_B_TEST $end
$var reg 16 ^ DATAIN_REGF_TEST[15:0] $end
$var reg 16 _ A_RF[15:0] $end
$var reg 4 ` DM_Addr[3:0] $end
$var reg 16 a DM_Load[15:0] $end
$var reg 16 b External_DataLoad_Reg[15:0] $end
$var reg 4 c External_DestAddr[3:0] $end
$var reg 1 d External_load $end
$var reg 1 e ForwardID_A_TEST $end
$var reg 1 f ForwardID_B_TEST $end
$var reg 1 g HALT_TEST $end
$var reg 16 h B_RF[15:0] $end
$var reg 1 i BRStall $end
$var reg 1 j LWStall2 $end
$var reg 1 k CALL_TEST $end
$var reg 1 l CALL_EX_TEST $end
$var reg 1 m RET_ID $end
$var reg 1 n RET_EX $end
$var reg 1 o RET_MEM $end
$var reg 1 p RTORRD_TEST $end
$var reg 1 q SelMUX[1] $end
$var reg 1 r SelMUX[0] $end
$upscope $end
$enddefinitions $end
#0
$dumpvars
0!
b0 "
b0 #
b0 $
b0 %
b0 &
b0 '
b0 (
b0 )
b0 *
b0 +
b0 ,
b0 -
b0 .
b0 /
00
01
X2
b1 3
b0 4
b0 5
b0 6
b0 7
b0 8
b0 9
b0 :
b0 ;
1<
b0 =
b1 >
1?
b0 @
b0 A
b0 B
b0 C
b0 D
b0 E
b0 F
b0 G
b0 H
b0 I
b0 J
b0 K
b0 L
b0 M
b0 N
b0 O
0P
0Q
0R
b0 S
0T
1U
0V
1W
0X
0Y
0Z
0[
0\
0]
b0 ^
b0 _
b0 `
b0 a
b1 b
b1 c
1d
0e
0f
0g
b0 h
0i
0j
0k
0l
0m
0n
0o
0p
0q
0r
$end
#5000
1!
bX '
b1 ,
02
b1 4
b1 6
b1 =
b10 >
1P
bX S
1X
b1 ^
#10000
0!
b10 b
b10 c
#15000
1!
b0 '
b10 ,
b1 /
bX 5
b10 6
b10 =
b11 >
b1 A
b0 S
1Y
b10 ^
#20000
0!
b11 b
b11 c
#25000
1!
b11 ,
b10 /
b0 5
b11 6
b11 =
b100 >
b10 B
b11 ^
#30000
0!
b10 `
b1011 a
b0 b
b0 c
#35000
1!
b1011000111111111 "
b0 ,
b11 /
b0 6
b1011 8
b10 :
b1011000111111111 ;
b100 =
b101 >
b11 C
b0 ^
#40000
0!
b0 `
b0 a
0d
#45000
1!
b100010100110000 "
b1011000111111111 #
b1111 *
b1111 +
b100 /
b0 3
b0 8
b0 :
b100010100110000 ;
b101 =
b110 >
b11111111 _
#50000
0!
#55000
1!
b11001010001 "
b100010100110000 #
b1011000111111111 $
b11 *
b0 +
b11111111 -
X2
b10000 3
b0 4
b11001010001 ;
b110 =
b111 >
0U
b11 _
1e
#60000
0!
#65000
1!
b1010011000000000 "
b11001010001 #
b100010100110000 $
b1011000111111111 %
b11111111 '
b101 *
b1 +
b11 -
b110110 /
02
b1 3
b10000 4
b1111 :
b1010011000000000 ;
b111 =
b1000 >
b1111 S
1U
1Z
1]
b0 _
0e
1f
b1 h
#70000
0!
#75000
1!
b100010101011111 "
b1010011000000000 #
b11001010001 $
b100010100110000 %
b1011000111111111 &
b11 '
b0 *
b0 +
b1 ,
b11111111 .
b1011000 /
b0 3
b1 4
b11111111 5
b1 6
b1 7
b11 :
b100010101011111 ;
b1000 =
b1001 >
b11 S
0Z
1[
0]
b11111111 ^
0f
b11111111 h
#80000
0!
#85000
1!
b1100001011111011 "
b100010101011111 #
b1010011000000000 $
b11001010001 %
b100010100110000 &
b100000010 '
b101 *
b1111 +
b101 ,
b0 -
b100000010 .
b1000 /
X2
b10000 3
b0 4
b11 5
b101 6
b101 7
b1 8
b1011 9
b10 :
b1100001011111011 ;
b1001 =
b1010 >
b11111111 A
b10 S
0U
0[
b11 ^
b11 _
b1111111111111111 h
#90000
0!
#95000
1!
b1100001011111011 #
b100010101011111 $
b1010011000000000 %
b11001010001 &
b10 '
b1111 *
b1011 +
b110 ,
b11 -
b1111111111111111 .
b1101000 /
02
b0 3
b10000 4
b100000010 5
b110 6
b110 7
b11111111 8
b100001000101111 ;
b1010 =
b1011 >
b11 E
1U
0W
b100000010 ^
b0 _
b0 h
1i
#100000
0!
#105000
1!
b100001000101111 "
b0 $
b100010101011111 %
b1010011000000000 &
b0 -
b0 .
b0 /
b0 4
b10 5
b1111111111111111 8
b100000010 F
0X
b10 ^
0i
1j
#110000
0!
#115000
1!
b0 "
b100001000101111 #
b1100001011111011 $
b0 %
b100010101011111 &
b0 '
b10 *
b1111 +
b101 ,
b1111111111111011 .
b110 /
10
11
b10000 3
b101 6
b101 7
b0 8
b0 9
b0 :
b1100001011111000 ;
b1011 =
b110 >
b10 F
b0 S
0U
1V
1W
0Y
b10 _
b1111111111111111 h
0j
1r
#120000
0!
#125000
1!
b11001010001 "
b0 #
b0 $
b1100001011111011 %
b0 &
b1111111111111011 '
b0 *
b0 +
b0 ,
b0 .
b0 /
00
01
X2
b1 3
b0 5
b0 6
b0 7
b1011 :
b11001010001 ;
b110 =
b111 >
b10 E
0P
b1011 S
1U
0V
1X
b0 ^
b0 _
b0 h
0r
#130000
0!
#135000
1!
b1010011000000000 "
b11001010001 #
b0 %
b1100001011111011 &
bX '
b101 *
b1 +
b10 ,
b1100 /
02
b1 4
b1111111111111011 5
b10 6
b10 7
b0X0XX 9
bX :
b1010011000000000 ;
b111 =
b1000 >
bX S
1Y
b1111111111111011 ^
b10 _
1f
b11111111 h
#140000
0!
#145000
1!
b100010101011111 "
b1010011000000000 #
b11001010001 $
b0 &
b0 '
b0 *
b0 +
b0 ,
b10 -
b11111111 .
b1011000 /
b0 3
bX 5
b0 6
b0 7
b0 9
b0 :
b100010101011111 ;
b1000 =
b1001 >
1P
b0 S
1[
bX ^
b0 _
0f
bX h
#150000
0!
#155000
1!
b1100001011111011 "
b100010101011111 #
b1010011000000000 $
b11001010001 %
b100000001 '
b101 *
b1111 +
b0 -
b100000001 .
b1000 /
X2
b10000 3
b0 4
b0 5
b11111111 8
b1 :
b1100001011111011 ;
b1001 =
b1010 >
bX @
b1 S
0U
0[
b0 ^
b10 _
b1111111111111111 h
#160000
0!
#165000
1!
b1100001011111011 #
b100010101011111 $
b1010011000000000 %
b11001010001 &
b1 '
b1111 *
b1011 +
b110 ,
b10 -
b1111111111111111 .
b1101000 /
02
b0 3
b10000 4
b100000001 5
b110 6
b110 7
bX 8
b100001000101111 ;
b1010 =
b1011 >
b0 @
1U
0W
b100000001 ^
b0 _
b0 h
1i
#170000
0!
#175000
1!
b100001000101111 "
b0 $
b100010101011111 %
b1010011000000000 &
b0 -
b0 .
b0 /
b0 4
b1 5
b1111111111111111 8
b100000001 F
0X
b1 ^
0i
1j
#180000
0!
#185000
1!
b0 "
b100001000101111 #
b1100001011111011 $
b0 %
b100010101011111 &
b0 '
b10 *
b1111 +
b101 ,
b1111111111111011 .
b110 /
10
11
b10000 3
b101 6
b101 7
b0 8
b0 :
b1100001011111000 ;
b1011 =
b110 >
b1 F
b0 S
0U
1V
1W
0Y
b10 _
b1111111111111111 h
0j
1r
#190000
0!
#195000
1!
b11001010001 "
b0 #
b0 $
b1100001011111011 %
b0 &
b1111111111111011 '
b0 *
b0 +
b0 ,
b0 .
b0 /
00
01
X2
b1 3
b0 5
b0 6
b0 7
b1011 :
b11001010001 ;
b110 =
b111 >
b1 E
0P
b1011 S
1U
0V
1X
b0 ^
b0 _
b0 h
0r
#200000
0!
#205000
1!
b1010011000000000 "
b11001010001 #
b0 %
b1100001011111011 &
bX '
b101 *
b1 +
b10 ,
b1100 /
02
b1 4
b1111111111111011 5
b10 6
b10 7
b0X0XX 9
bX :
b1010011000000000 ;
b111 =
b1000 >
bX S
1Y
b1111111111111011 ^
b1 _
1f
b11111111 h
#210000
0!
#215000
1!
b100010101011111 "
b1010011000000000 #
b11001010001 $
b0 &
b0 '
b0 *
b0 +
b0 ,
b1 -
b11111111 .
b1011000 /
b0 3
bX 5
b0 6
b0 7
b0 9
b0 :
b100010101011111 ;
b1000 =
b1001 >
1P
b0 S
1[
bX ^
b0 _
0f
bX h
#220000
0!
#225000
1!
b1100001011111011 "
b100010101011111 #
b1010011000000000 $
b11001010001 %
b100000000 '
b101 *
b1111 +
b0 -
b100000000 .
b1000 /
X2
b10000 3
b0 4
b0 5
b11111111 8
b1100001011111011 ;
b1001 =
b1010 >
bX @
0U
0[
b0 ^
b1 _
b1111111111111111 h
#230000
0!
#235000
1!
b1100001011111011 #
b100010101011111 $
b1010011000000000 %
b11001010001 &
b0 '
b1111 *
b1011 +
b110 ,
b1 -
b1111111111111111 .
b1101000 /
02
b0 3
b10000 4
b100000000 5
b110 6
b110 7
bX 8
b100001000101111 ;
b1010 =
b1011 >
b0 @
1U
0W
b100000000 ^
b0 _
b0 h
1i
#240000
0!
#245000
1!
b100001000101111 "
b0 $
b100010101011111 %
b1010011000000000 &
b100 (
b0 -
b0 .
b0 /
b0 4
b0 5
b1111111111111111 8
b100000000 F
0X
b0 ^
0i
1j
#250000
0!
#255000
1!
b1100001011111000 "
b100001000101111 #
b1100001011111011 $
b0 %
b100010101011111 &
b100 )
b10 *
b1111 +
b101 ,
b1111111111111011 .
b110 /
b10000 3
b101 6
b101 7
b0 8
b1100001011111000 ;
b1011 =
b1100 >
b0 F
0U
1W
0Y
b10 _
b1111111111111111 h
0j
#260000
0!
#265000
1!
b1100001011111000 #
b100001000101111 $
b1100001011111011 %
b0 &
b1111111111111011 '
b1111 *
b1000 +
b0 ,
b10 -
b1111111111111111 .
b111010 /
b0 3
b10000 4
b0 6
b0 7
b1011 :
b1111000000000000 ;
b1100 =
b1101 >
b0 E
0P
b1011 S
1U
0W
1X
b0 _
b0 h
1i
#270000
0!
#275000
1!
b1111000000000000 "
b0 $
b100001000101111 %
b1100001011111011 &
b1 '
b0 (
b10 ,
b0 -
b0 .
b0 /
b0 4
b1111111111111011 5
b10 6
b10 7
b1111111111111111 8
b1 :
b1 S
0X
1Y
b1111111111111011 ^
0i
1j
#280000
0!
#285000
1!
b0 "
b1111000000000000 #
b1100001011111000 $
b0 %
b100001000101111 &
b0 '
b0 )
b0 *
b0 +
b1111111111111000 .
b101 /
10
11
b1 5
b0 8
b0 :
b0 ;
b1101 =
b101 >
1P
b0 S
0U
1V
0Y
b1 ^
0j
1r
#290000
0!
#295000
1!
b100010100110000 "
b0 #
b0 $
b1100001011111000 %
b0 &
b1111111111111000 '
b0 ,
b0 .
b0 /
00
01
X2
b1 3
b0 5
b0 6
b0 7
b1000 :
b100010100110000 ;
b101 =
b110 >
b1 B
0P
b1000 S
1U
0V
1W
b0 ^
0r
#300000
0!
#305000
1!
b11001010001 "
b100010100110000 #
b0 %
b1100001011111000 &
bX '
b11 *
b10 ,
b1110 /
02
b10000 3
b1 4
b1111111111111000 5
b10 6
b10 7
b0X0XX 9
bX :
b11001010001 ;
b110 =
b111 >
bX S
1X
b1111111111111000 ^
b11 _
1e
#310000
0!
#315000
1!
b1010011000000000 "
b11001010001 #
b100010100110000 $
b0 &
b0 '
b101 *
b1 +
b0 ,
b11 -
b110110 /
b1 3
b10000 4
bX 5
b0 6
b0 7
b0 9
b0 :
b1010011000000000 ;
b111 =
b1000 >
b0 S
1Y
1Z
bX ^
b0 _
0e
1f
b11111111 h
#320000
0!
#325000
1!
b100010101011111 "
b1010011000000000 #
b11001010001 $
b100010100110000 %
b11 '
b0 *
b0 +
b11111111 .
b1011000 /
b0 3
b1 4
b0 5
b11 :
b100010101011111 ;
b1000 =
b1001 >
1P
b11 S
0Z
1[
b0 ^
0f
b0 h
#330000
0!
#335000
1!
b1100001011111011 "
b100010101011111 #
b1010011000000000 $
b11001010001 %
b100010100110000 &
b100000010 '
b101 *
b1111 +
b101 ,
b0 -
b100000010 .
b1000 /
X2
b10000 3
b0 4
b11 5
b101 6
b101 7
b11111111 8
b1011 9
b10 :
b1100001011111011 ;
b1001 =
b1010 >
b10 S
0U
0[
b11 ^
b11 _
b1111111111111111 h
#340000
0!
#345000
1!
b1100001011111011 #
b100010101011111 $
b1010011000000000 %
b11001010001 &
b10 '
b1111 *
b1011 +
b110 ,
b11 -
b1111111111111111 .
b1101000 /
02
b0 3
b10000 4
b100000010 5
b110 6
b110 7
b0 8
b100001000101111 ;
b1010 =
b1011 >
b11 E
1U
0W
b100000010 ^
b0 _
b0 h
1i
#350000
0!
#355000
1!
b100001000101111 "
b0 $
b100010101011111 %
b1010011000000000 &
b0 -
b0 .
b0 /
b0 4
b10 5
b1111111111111111 8
b100000010 F
0X
b10 ^
0i
1j
#360000
0!
#365000
1!
b0 "
b100001000101111 #
b1100001011111011 $
b0 %
b100010101011111 &
b0 '
b10 *
b1111 +
b101 ,
b1111111111111011 .
b110 /
10
11
b10000 3
b101 6
b101 7
b0 8
b0 9
b0 :
b1100001011111000 ;
b1011 =
b110 >
b10 F
b0 S
0U
1V
1W
0Y
b1 _
b1111111111111111 h
0j
1r
#370000
0!
#375000
1!
b11001010001 "
b0 #
b0 $
b1100001011111011 %
b0 &
b1111111111111011 '
b0 *
b0 +
b0 ,
b0 .
b0 /
00
01
X2
b1 3
b0 5
b0 6
b0 7
b1011 :
b11001010001 ;
b110 =
b111 >
b10 E
0P
b1011 S
1U
0V
1X
b0 ^
b0 _
b0 h
0r
#380000
0!
#385000
1!
b1010011000000000 "
b11001010001 #
b0 %
b1100001011111011 &
bX '
b101 *
b1 +
b10 ,
b1100 /
02
b1 4
b1111111111111011 5
b10 6
b10 7
b0X0XX 9
bX :
b1010011000000000 ;
b111 =
b1000 >
bX S
1Y
b1111111111111011 ^
b10 _
1f
b11111111 h
#390000
0!
#395000
1!
b100010101011111 "
b1010011000000000 #
b11001010001 $
b0 &
b0 '
b0 *
b0 +
b0 ,
b10 -
b11111111 .
b1011000 /
b0 3
bX 5
b0 6
b0 7
b0 9
b0 :
b100010101011111 ;
b1000 =
b1001 >
1P
b0 S
1[
bX ^
b0 _
0f
bX h
#400000
0!
#405000
1!
b1100001011111011 "
b100010101011111 #
b1010011000000000 $
b11001010001 %
b100000001 '
b101 *
b1111 +
b0 -
b100000001 .
b1000 /
X2
b10000 3
b0 4
b0 5
b11111111 8
b1 :
b1100001011111011 ;
b1001 =
b1010 >
bX @
b1 S
0U
0[
b0 ^
b10 _
b1111111111111111 h
#410000
0!
#415000
1!
b1100001011111011 #
b100010101011111 $
b1010011000000000 %
b11001010001 &
b1 '
b1111 *
b1011 +
b110 ,
b10 -
b1111111111111111 .
b1101000 /
02
b0 3
b10000 4
b100000001 5
b110 6
b110 7
bX 8
b100001000101111 ;
b1010 =
b1011 >
b0 @
1U
0W
b100000001 ^
b0 _
b0 h
1i
#420000
0!
#425000
1!
b100001000101111 "
b0 $
b100010101011111 %
b1010011000000000 &
b0 -
b0 .
b0 /
b0 4
b1 5
b1111111111111111 8
b100000001 F
0X
b1 ^
0i
1j
#430000
0!
#435000
1!
b0 "
b100001000101111 #
b1100001011111011 $
b0 %
b100010101011111 &
b0 '
b10 *
b1111 +
b101 ,
b1111111111111011 .
b110 /
10
11
b10000 3
b101 6
b101 7
b0 8
b0 :
b1100001011111000 ;
b1011 =
b110 >
b1 F
b0 S
0U
1V
1W
0Y
b1 _
b1111111111111111 h
0j
1r
#440000
0!
#445000
1!
b11001010001 "
b0 #
b0 $
b1100001011111011 %
b0 &
b1111111111111011 '
b0 *
b0 +
b0 ,
b0 .
b0 /
00
01
X2
b1 3
b0 5
b0 6
b0 7
b1011 :
b11001010001 ;
b110 =
b111 >
b1 E
0P
b1011 S
1U
0V
1X
b0 ^
b0 _
b0 h
0r
#450000
0!
#455000
1!
b1010011000000000 "
b11001010001 #
b0 %
b1100001011111011 &
bX '
b101 *
b1 +
b10 ,
b1100 /
02
b1 4
b1111111111111011 5
b10 6
b10 7
b0X0XX 9
bX :
b1010011000000000 ;
b111 =
b1000 >
bX S
1Y
b1111111111111011 ^
b1 _
1f
b11111111 h
#460000
0!
#465000
1!
b100010101011111 "
b1010011000000000 #
b11001010001 $
b0 &
b0 '
b0 *
b0 +
b0 ,
b1 -
b11111111 .
b1011000 /
b0 3
bX 5
b0 6
b0 7
b0 9
b0 :
b100010101011111 ;
b1000 =
b1001 >
1P
b0 S
1[
bX ^
b0 _
0f
bX h
#470000
0!
#475000
1!
b1100001011111011 "
b100010101011111 #
b1010011000000000 $
b11001010001 %
b100000000 '
b101 *
b1111 +
b0 -
b100000000 .
b1000 /
X2
b10000 3
b0 4
b0 5
b11111111 8
b1100001011111011 ;
b1001 =
b1010 >
bX @
0U
0[
b0 ^
b1 _
b1111111111111111 h
#480000
0!
#485000
1!
b1100001011111011 #
b100010101011111 $
b1010011000000000 %
b11001010001 &
b0 '
b1111 *
b1011 +
b110 ,
b1 -
b1111111111111111 .
b1101000 /
02
b0 3
b10000 4
b100000000 5
b110 6
b110 7
bX 8
b100001000101111 ;
b1010 =
b1011 >
b0 @
1U
0W
b100000000 ^
b0 _
b0 h
1i
#490000
0!
#495000
1!
b100001000101111 "
b0 $
b100010101011111 %
b1010011000000000 &
b100 (
b0 -
b0 .
b0 /
b0 4
b0 5
b1111111111111111 8
b100000000 F
0X
b0 ^
0i
1j
#500000
0!
#505000
1!
b1100001011111000 "
b100001000101111 #
b1100001011111011 $
b0 %
b100010101011111 &
b100 )
b10 *
b1111 +
b101 ,
b1111111111111011 .
b110 /
b10000 3
b101 6
b101 7
b0 8
b1100001011111000 ;
b1011 =
b1100 >
b0 F
0U
1W
0Y
b1 _
b1111111111111111 h
0j
#510000
0!
#515000
1!
b1100001011111000 #
b100001000101111 $
b1100001011111011 %
b0 &
b1111111111111011 '
b1111 *
b1000 +
b0 ,
b1 -
b1111111111111111 .
b111010 /
b0 3
b10000 4
b0 6
b0 7
b1011 :
b1111000000000000 ;
b1100 =
b1101 >
b0 E
0P
b1011 S
1U
0W
1X
b0 _
b0 h
1i
#520000
0!
#525000
1!
b1111000000000000 "
b0 $
b100001000101111 %
b1100001011111011 &
b0 '
b10 ,
b0 -
b0 .
b0 /
b0 4
b1111111111111011 5
b10 6
b10 7
b1111111111111111 8
b0 :
b0 S
0X
1Y
b1111111111111011 ^
0i
1j
#530000
0!
#535000
1!
b1111000000000000 #
b1100001011111000 $
b0 %
b100001000101111 &
b0 *
b0 +
b1111111111111000 .
b101 /
b0 5
b0 8
b0 ;
b1101 =
b1110 >
1P
0U
0Y
b0 ^
0j
#540000
0!
#545000
1!
b1111000000000000 $
b1100001011111000 %
b0 &
b1111111111111000 '
b0 ,
b0 .
b1101 /
X2
b0 6
b0 7
b1000 :
b1110 =
b1111 >
0?
b0 B
0P
b1000 S
1g
#550000
0!
#555000
1!
b1111000000000000 %
b1100001011111000 &
bX '
bX (
b10 ,
b1110 /
b1111111111111000 5
b10 6
b10 7
b0X0XX 9
bX :
bX S
b1111111111111000 ^
#560000
0!
#565000
1!
b1111000000000000 &
bX )
b0 ,
b1111 /
bX 5
b0 6
b0 7
bX ^
