tests/Single Cycle/TESTBENCH2_VCD.vcd
$comment
Copyright (C) 1991-2009 Altera Corporation
Your use of Altera Corporation's design tools, logic functions 
and other software and tools, and its AMPP partner logic 
functions, and any output files from any of the foregoing 
(including device programming or simulation files), and any 
associated documentation or information are expressly subject 
to the terms and conditions of the Altera Program License 
Subscription Agreement, Altera MegaCore Function License 
Agreement, or other applicable license agreement, including, 
without limitation, that your use is for the sole purpose of 
programming logic devices manufactured by Altera and sold by 
Altera or its authorized distributors.  Please refer to the 
applicable agreement for further details.
$end

$date 
  12/13/2012 12:13:45 
$end
$version 
 QUARTUS_VCD_EXPORT 1.0 
$end
$timescale
  1 ps
$end
$scope module Entire $end
$var reg 1 ! ClockSig $end
$var reg 16 " Ins_test[15:0] $end
$var reg 1 # LoadPC $end
$var reg 16 $ Result[15:0] $end
$var reg 16 % A_REGFILE[15:0] $end
$var reg 16 & B_REGFILE[15:0] $end
$var reg 16 ' B_ALU[15:0] $end
$var reg 4 ( DM_Addr[3:0] $end
$var reg 16 ) DM_Load[15:0] $end
$var reg 16 * External_DataLoad_Reg[15:0] $end
$var reg 4 + External_DestAddr[3:0] $end
$var reg 1 , External_load $end
$var reg 16 - PC_out[15:0] $end
$var reg 16 . PC_out1[15:0] $end
$var reg 1 / B_CD_TEST $end
$var reg 16 0 DM_dataOut[15:0] $end
$var reg 3 1 Flags[2:0] $end
$var reg 3 2 Flags_test[2:0] $end
$var reg 4 3 MEMADDR_TEST[3:0] $end
$var reg 16 4 SP_ADD_TEST[15:0] $end
$var reg 1 5 SP_SEL_TEST $end
$var reg 8 6 CONTROL_TEST[7:0] $end
$var reg 1 7 RW_DATAMEM $end
$var reg 1 8 CarryOut $end
$upscope $end
$enddefinitions $end
#0
$dumpvars
0!
b0 "
1#
b0 $
b0 %
b0 &
b0 '
b0 (
b0 )
b1 *
b1 +
1,
b0 -
b1 .
0/
b0 0
b0 1
b0 2
b0 3
b1111111111111111 4
05
b1 6
07
08
$end
#5000
1!
b1 -
b10 .
b100 1
b100 2
#10000
0!
b10 *
b10 +
#15000
1!
b10 -
b11 .
#20000
0!
b11 *
b11 +
#25000
1!
b11 -
b100 .
#30000
0!
b10 (
b1011 )
b0 *
b0 +
b10 3
#35000
1!
b1000010000000010 "
b10 $
b10 &
b10 '
b100 -
b101 .
b1011 0
b0 6
#40000
0!
b0 (
b0 )
0,
#45000
1!
b1111001000010 "
b1001 $
b1011 %
b101 -
b110 .
b0 0
b1001 3
b1010 4
b10 6
18
#50000
0!
#55000
1!
b1001001100000000 "
b1001 %
b11 &
b0 '
b110 -
b111 .
b0 1
b0 2
b1000 4
b0 6
17
08
#60000
0!
#65000
1!
b1000010000000000 "
b0 &
b111 -
b1000 .
b11 0
07
#70000
0!
#75000
1!
b1010000010100 "
b1111111111111110 $
b1 %
b11 &
b11 '
b1000 -
b1001 .
b0 0
b1110 3
b0 4
b10 6
#80000
0!
#85000
1!
b101010001000011 "
b1111111111111111 $
b1111111111111110 %
b1001 -
b1010 .
b1 1
b1 2
b1111 3
b1111111111111101 4
b100000 6
#90000
0!
#95000
1!
b1011010000000000 "
b1111111100000000 $
b0 %
b1111111111111111 &
b1111111111111111 '
b1010 -
b1011 .
b0 3
b1111111111111111 4
b0 6
X8
#100000
0!
#105000
1!
b1111000000000000 "
bX $
b0 &
b0 '
b1011 -
b1100 .
b0X0XX 0
bX 3
#110000
0!
#115000
1!
bX 1
bX 2
