tests/Single Cycle/TESTBENCH3_VCD.vcd
$comment
Copyright (C) 1991-2009 Altera Corporation
Your use of Altera Corporation's design tools, logic functions 
and other software and tools, and its AMPP partner logic 
functions, and any output files from any of the foregoing 
(including device programming or simulation files), and any 
associated documentation or information are expressly subject 
to the terms and conditions of the Altera Program License 
Subscription Agreement, Altera MegaCore Function License 
Agreement, or other applicable license agreement, including, 
without limitation, that your use is for the sole purpose of 
programming logic devices manufactured by Altera and sold by 
Altera or its authorized distributors.  Please refer to the 
applicable agreement for further details.
$end

$date 
  12/13/2012 12:13:34 
$end
$version 
 QUARTUS_VCD_EXPORT 1.0 
$end
$timescale
  1 ps
$end
$scope module Entire $end
$var reg 1 ! ClockSig $end
$var reg 16 " Ins_test[15:0] $end
$var reg 1 # LoadPC $end
$var reg 16 $ Result[15:0] $end
$var reg 16 % A_REGFILE[15:0] $end
$var reg 16 & B_REGFILE[15:0] $end
$var reg 16 ' B_ALU[15:0] $end
$var reg 4 ( DM_Addr[3:0] $end
$var reg 16 ) DM_Load[15:0] $end
$var reg 16 * External_DataLoad_Reg[15:0] $end
$var reg 4 + External_DestAddr[3:0] $end
$var reg 1 , External_load $end
$var reg 16 - PC_out[15:0] $end
$var reg 16 . PC_out1[15:0] $end
$var reg 1 / B_CD_TEST $end
$var reg 16 0 DM_dataOut[15:0] $end
$var reg 3 1 Flags[2:0] $end
$var reg 3 2 Flags_test[2:0] $end
$var reg 4 3 MEMADDR_TEST[3:0] $end
$var reg 16 4 SP_ADD_TEST[15:0] $end
$var reg 1 5 SP_SEL_TEST $end
$var reg 8 6 CONTROL_TEST[7:0] $end
$var reg 1 7 RW_DATAMEM $end
$var reg 1 8 CarryOut $end
$upscope $end
$enddefinitions $end
#0
$dumpvars
0!
b0 "
1#
b0 $
b0 %
b0 &
b0 '
b0 (
b0 )
b1 *
b1 +
1,
b0 -
b1 .
0/
b0 0
b0 1
b0 2
b0 3
b1111111111111111 4
05
b1 6
07
08
$end
#5000
1!
b1 -
b10 .
b100 1
b100 2
#10000
0!
b10 *
b10 +
#15000
1!
b10 -
b11 .
#20000
0!
b11 *
b11 +
#25000
1!
b11 -
b100 .
#30000
0!
b10 (
b1011 )
b0 *
b0 +
b10 3
#35000
1!
b1011000111111111 "
b11111111 $
b11111111 %
b100 -
b101 .
b1011 0
b11111110 4
b0 6
X8
#40000
0!
b1 &
b1 '
b0 (
b0 )
0,
b0 0
b1111 3
#45000
1!
b100010100110000 "
b11 $
b11 %
b0 &
b0 '
b101 -
b110 .
b11 3
b10 4
b10000 6
08
#50000
0!
#55000
1!
b11001010001 "
b100000010 $
b11111111 &
b11111111 '
b110 -
b111 .
b1011 0
b0 1
b0 2
b10 3
b1 6
#60000
0!
#65000
1!
b1010011000000000 "
b10 $
b0 %
b100000010 &
b100000010 '
b111 -
b1000 .
b1111111111111111 4
b0 6
X8
#70000
0!
#75000
1!
b100010101011111 "
b11 %
b1111111111111111 &
b1111111111111111 '
b1000 -
b1001 .
b10 4
b10000 6
08
#80000
0!
#85000
1!
b1100001011111100 "
b1111111111111100 $
b0 %
b0 &
b1111111111111100 '
b1001 -
b110 .
1/
b0 0
b1100 3
b1111111111111111 4
b0 6
#90000
0!
#95000
1!
b11001010001 "
b100000001 $
b10 %
b11111111 &
b11111111 '
b110 -
b111 .
0/
b1 3
b1 4
b1 6
#100000
0!
#105000
1!
b1010011000000000 "
b1 $
b0 %
b100000001 &
b100000001 '
b111 -
b1000 .
b1111111111111111 4
b0 6
X8
#110000
0!
#115000
1!
b100010101011111 "
b10 %
b1111111111111111 &
b1111111111111111 '
b1000 -
b1001 .
b1 4
b10000 6
08
#120000
0!
#125000
1!
b1100001011111100 "
b1111111111111100 $
b0 %
b0 &
b1111111111111100 '
b1001 -
b110 .
1/
b1100 3
b1111111111111111 4
b0 6
#130000
0!
#135000
1!
b11001010001 "
b100000000 $
b1 %
b11111111 &
b11111111 '
b110 -
b111 .
0/
b0 3
b0 4
b1 6
#140000
0!
#145000
1!
b1010011000000000 "
b0 $
b0 %
b100000000 &
b100000000 '
b111 -
b1000 .
b1111111111111111 4
b0 6
X8
#150000
0!
#155000
1!
b100010101011111 "
b1 %
b1111111111111111 &
b1111111111111111 '
b1000 -
b1001 .
b0 4
b10000 6
08
#160000
0!
#165000
1!
b1100001011111100 "
b1111111111111100 $
b0 %
b0 &
b1111111111111100 '
b1001 -
b1010 .
b100 1
b100 2
b1100 3
b1111111111111111 4
b0 6
#170000
0!
#175000
1!
b100001000101111 "
b1 $
b10 %
b1111111111111111 &
b1111111111111111 '
b1010 -
b1011 .
b1 3
b1 4
b10000 6
#180000
0!
#185000
1!
b1100001011111001 "
b1111111111111001 $
b0 %
b0 &
b1111111111111001 '
b1011 -
b101 .
1/
b0 1
b0 2
b1001 3
b1111111111111111 4
b0 6
#190000
0!
#195000
1!
b100010100110000 "
b11 $
b11 %
b0 '
b101 -
b110 .
0/
b11 3
b10 4
b10000 6
#200000
0!
#205000
1!
b11001010001 "
b100000010 $
b11111111 &
b11111111 '
b110 -
b111 .
b1011 0
b10 3
b1 6
#210000
0!
#215000
1!
b1010011000000000 "
b10 $
b0 %
b100000010 &
b100000010 '
b111 -
b1000 .
b1111111111111111 4
b0 6
X8
#220000
0!
#225000
1!
b100010101011111 "
b11 %
b1111111111111111 &
b1111111111111111 '
b1000 -
b1001 .
b10 4
b10000 6
08
#230000
0!
#235000
1!
b1100001011111100 "
b1111111111111100 $
b0 %
b0 &
b1111111111111100 '
b1001 -
b110 .
1/
b0 0
b1100 3
b1111111111111111 4
b0 6
#240000
0!
#245000
1!
b11001010001 "
b100000001 $
b10 %
b11111111 &
b11111111 '
b110 -
b111 .
0/
b1 3
b1 4
b1 6
#250000
0!
#255000
1!
b1010011000000000 "
b1 $
b0 %
b100000001 &
b100000001 '
b111 -
b1000 .
b1111111111111111 4
b0 6
X8
#260000
0!
#265000
1!
b100010101011111 "
b10 %
b1111111111111111 &
b1111111111111111 '
b1000 -
b1001 .
b1 4
b10000 6
08
#270000
0!
#275000
1!
b1100001011111100 "
b1111111111111100 $
b0 %
b0 &
b1111111111111100 '
b1001 -
b110 .
1/
b1100 3
b1111111111111111 4
b0 6
#280000
0!
#285000
1!
b11001010001 "
b100000000 $
b1 %
b11111111 &
b11111111 '
b110 -
b111 .
0/
b0 3
b0 4
b1 6
#290000
0!
#295000
1!
b1010011000000000 "
b0 $
b0 %
b100000000 &
b100000000 '
b111 -
b1000 .
b1111111111111111 4
b0 6
X8
#300000
0!
#305000
1!
b100010101011111 "
b1 %
b1111111111111111 &
b1111111111111111 '
b1000 -
b1001 .
b0 4
b10000 6
08
#310000
0!
#315000
1!
b1100001011111100 "
b1111111111111100 $
b0 %
b0 &
b1111111111111100 '
b1001 -
b1010 .
b100 1
b100 2
b1100 3
b1111111111111111 4
b0 6
#320000
0!
#325000
1!
b100001000101111 "
b0 $
b1 %
b1111111111111111 &
b1111111111111111 '
b1010 -
b1011 .
b0 3
b0 4
b10000 6
#330000
0!
#335000
1!
b1100001011111001 "
b1111111111111001 $
b0 %
b0 &
b1111111111111001 '
b1011 -
b1100 .
b1001 3
b1111111111111111 4
b0 6
#340000
0!
#345000
1!
b1111000000000000 "
bX $
b0 '
b1100 -
b1101 .
b0X0XX 0
bX 3
X8
#350000
0!
#355000
1!
bX 1
bX 2
