tests/Single Cycle/TESTBENCH4_VCD.vcd
$comment
Copyright (C) 1991-2009 Altera Corporation
Your use of Altera Corporation's design tools, logic functions 
and other software and tools, and its AMPP partner logic 
functions, and any output files from any of the foregoing 
(including device programming or simulation files), and any 
associated documentation or information are expressly subject 
to the terms and conditions of the Altera Program License 
Subscription Agreement, Altera MegaCore Function License 
Agreement, or other applicable license agreement, including, 
without limitation, that your use is for the sole purpose of 
programming logic devices manufactured by Altera and sold by 
Altera or its authorized distributors.  Please refer to the 
applicable agreement for further details.
$end

$date 
  12/13/2012 12:13:26 
$end
$version 
 QUARTUS_VCD_EXPORT 1.0 
$end
$timescale
  1 ps
$end
$scope module Entire $end
$var reg 1 ! ClockSig $end
$var reg 16 " Ins_test[15:0] $end
$var reg 1 # LoadPC $end
$var reg 16 $ Result[15:0] $end
$var reg 3 % Flags[2:0] $end
$var reg 16 & A_REGFILE[15:0] $end
$var reg 16 ' B_REGFILE[15:0] $end
$var reg 16 ( B_ALU[15:0] $end
$var reg 16 ) PC_out[15:0] $end
$var reg 16 * PC_out1[15:0] $end
$var reg 1 + B_CD_TEST $end
$var reg 16 , DM_dataOut[15:0] $end
$var reg 4 - DM_Addr[3:0] $end
$var reg 16 . DM_Load[15:0] $end
$var reg 16 / External_DataLoad_Reg[15:0] $end
$var reg 4 0 External_DestAddr[3:0] $end
$var reg 1 1 External_load $end
$var reg 3 2 Flags_test[2:0] $end
$var reg 4 3 MEMADDR_TEST[3:0] $end
$var reg 16 4 SP_ADD_TEST[15:0] $end
$var reg 1 5 SP_SEL_TEST $end
$var reg 8 6 CONTROL_TEST[7:0] $end
$var reg 1 7 RW_DATAMEM $end
$var reg 1 8 CarryOut $end
$upscope $end
$enddefinitions $end
#0
$dumpvars
0!
b0 "
1#
b0 $
b0 %
b0 &
b0 '
b0 (
b0 )
b1 *
0+
b0 ,
b0 -
b0 .
b1 /
b1 0
11
b0 2
b0 3
b1111111111111111 4
05
b1 6
07
08
$end
#5000
1!
b100 %
b1 )
b10 *
b100 2
#10000
0!
b10 /
b10 0
#15000
1!
b10 )
b11 *
#20000
0!
b11 /
b11 0
#25000
1!
b11 )
b100 *
#30000
0!
b10 -
b1011 .
b0 /
b0 0
b10 3
#35000
1!
b1000010000000010 "
b10 $
b10 '
b10 (
b100 )
b101 *
b1011 ,
b0 6
#40000
0!
b0 -
b0 .
01
#45000
1!
b1001100110010 "
b1 $
b11 &
b101 )
b110 *
b0 ,
b1 3
b10 4
b10 6
18
#50000
0!
#55000
1!
b1100001011111110 "
b1111111111111110 $
b0 %
b0 &
b0 '
b1111111111111110 (
b110 )
b101 *
1+
b0 2
b1110 3
b1111111111111111 4
b0 6
08
#60000
0!
#65000
1!
b1001100110010 "
b1111111111111111 $
b1 &
b10 '
b10 (
b101 )
b110 *
0+
b1111 3
b0 4
b10 6
#70000
0!
#75000
1!
b1100001011111110 "
b1111111111111110 $
b1 %
b0 &
b0 '
b1111111111111110 (
b110 )
b111 *
b1 2
b1110 3
b1111111111111111 4
b0 6
#80000
0!
#85000
1!
b1101000000001001 "
bX $
b0 (
b111 )
b1001 *
b0 3
b1 4
15
17
X8
#90000
0!
#95000
1!
b100111111111111 "
b0 $
bX %
b1 &
b1111111111111111 '
b1111111111111111 (
b1001 )
b1010 *
b1000 ,
bX 2
b0 4
05
b10000 6
07
08
#100000
0!
#105000
1!
b1110000000000000 "
bX $
b100 %
b0 &
b0 '
b0 (
b1010 )
b1000 *
b100 2
b1111111111111111 4
15
b0 6
X8
#110000
0!
#115000
1!
b1111000000000000 "
bX %
b1000 )
b1001 *
b0X0XX ,
bX 2
bX 3
05
