tests/Single Cycle/TESTBENCH1_VCD.vcd
$comment
Copyright (C) 1991-2009 Altera Corporation
Your use of Altera Corporation's design tools, logic functions 
and other software and tools, and its AMPP partner logic 
functions, and any output files from any of the foregoing 
(including device programming or simulation files), and any 
associated documentation or information are expressly subject 
to the terms and conditions of the Altera Program License 
Subscription Agreement, Altera MegaCore Function License 
Agreement, or other applicable license agreement, including, 
without limitation, that your use is for the sole purpose of 
programming logic devices manufactured by Altera and sold by 
Altera or its authorized distributors.  Please refer to the 
applicable agreement for further details.
$end

$date 
  12/13/2012 12:13:52 
$end
$version 
 QUARTUS_VCD_EXPORT 1.0 
$end
$timescale
  1 ps
$end
$scope module Entire $end
$var reg 1 ! ClockSig $end
$var reg 16 " Ins_test[15:0] $end
$var reg 1 # LoadPC $end
$var reg 16 $ Result[15:0] $end
$var reg 16 % B_ALU[15:0] $end
$var reg 4 & DM_Addr[3:0] $end
$var reg 16 ' DM_Load[15:0] $end
$var reg 16 ( External_DataLoad_Reg[15:0] $end
$var reg 4 ) External_DestAddr[3:0] $end
$var reg 1 * External_load $end
$var reg 16 + PC_out[15:0] $end
$var reg 16 , PC_out1[15:0] $end
$var reg 1 - B_CD_TEST $end
$var reg 16 . DM_dataOut[15:0] $end
$var reg 3 / Flags[2:0] $end
$var reg 3 0 Flags_test[2:0] $end
$var reg 4 1 MEMADDR_TEST[3:0] $end
$var reg 16 2 SP_ADD_TEST[15:0] $end
$var reg 1 3 SP_SEL_TEST $end
$var reg 16 4 A_REGFILE[15:0] $end
$var reg 16 5 B_REGFILE[15:0] $end
$var reg 8 6 CONTROL_TEST[7:0] $end
$var reg 1 7 RW_DATAMEM $end
$var reg 1 8 CarryOut $end
$upscope $end
$var reg 16 9 B_alu[15:0] $end
$enddefinitions $end
#0
$dumpvars
0!
b0 "
1#
b0 $
b0 %
b0 &
b0 '
b1 (
b1 )
1*
b0 +
b1 ,
0-
b0 .
b0 /
b0 0
b0 1
b1111111111111111 2
03
b0 4
b0 5
b1 6
07
08
bX 9
$end
#5000
1!
b1 +
b10 ,
b100 /
b100 0
#10000
0!
b1100 (
b10 )
#15000
1!
b10 +
b11 ,
#20000
0!
b1101 (
b11 )
#25000
1!
b100100011 "
b11001 $
b1101 %
b11 +
b100 ,
b1011 2
b1100 4
b1101 5
#30000
0!
b0 (
b0 )
0*
b1001 1
#35000
1!
b111010000010010 "
b1100100 $
b10 %
b100 +
b101 ,
b0 /
b0 0
b100 1
b11000 2
b11001 4
b10 5
b10000000 6
#40000
0!
#45000
1!
b11010100010100 "
b1111101 $
b1100100 %
b101 +
b110 ,
b1101 1
b1100100 5
b1000 6
#50000
0!
#55000
1!
b1011001010001 "
b1100100 $
b11001 %
b110 +
b111 ,
b100 1
b1111100 2
b1111101 4
b11001 5
b10 6
18
#60000
0!
#65000
1!
b1111000000000000 "
bX $
b0 %
b111 +
b1000 ,
bX 1
b1111111111111111 2
b0 4
b0 5
b0 6
X8
#70000
0!
#75000
1!
bX /
bX 0
